<?xml version="1.0" encoding="utf-8"?>
<!-- Generator: Adobe Illustrator 13.0.0, SVG Export Plug-In . SVG Version: 6.00 Build 14948)  -->
<svg version="1.2" baseProfile="tiny" id="Layer_1" xmlns="http://www.w3.org/2000/svg" xmlns:xlink="http://www.w3.org/1999/xlink"
	 x="0px" y="0px" width="27px" height="27px" viewBox="0 0 27 27" xml:space="preserve">
<g>
	<circle fill="none" cx="13.5" cy="13.5" r="26.334"/>
	<g>
		<path fill="#FFFFFF" d="M24.229,3.747c-1.365-1.951-2.731-3.511-2.731-3.511c-0.39-0.585-1.363-0.585-1.753,0
			c0,0-1.366,1.56-2.928,3.511c-0.78,1.171-1.56,2.146-1.95,3.122c-1.95-2.537-3.706-4.487-3.901-4.487
			c-0.585-0.585-1.561-0.585-2.146,0c0,0.195-2.341,2.341-4.292,5.268c-3.122,4.096-4.486,7.217-4.486,9.559
			c0,5.462,4.486,9.947,9.948,9.947c5.462,0,9.949-4.485,9.949-9.947c0-0.195,0-0.391,0-0.588c0.195,0,0.391,0,0.584,0
			c3.707,0,6.633-2.924,6.633-6.63C27.152,8.428,26.18,6.283,24.229,3.747z M18.182,17.207c0,4.486-3.705,8.191-8.193,8.191
			c-4.486,0-8.193-3.705-8.193-8.191c0-1.366,0.78-3.902,4.292-8.583c1.755-2.341,3.511-4.292,4.096-4.877
			c0.585,0.584,2.341,2.536,4.095,4.877l0,0c-0.193,0.39-0.193,0.975-0.193,1.365c0,2.927,1.755,5.268,4.291,6.243
			C17.984,16.619,18.182,16.816,18.182,17.207z M20.521,15.061c-2.729,0-5.071-2.341-5.071-5.071c0-0.39,0-0.78,0.194-1.17
			c0.391-1.17,1.17-2.536,2.34-4.097c0.977-1.17,1.951-2.341,2.343-2.926c0.585,0.585,1.366,1.561,2.342,2.926
			c2.146,2.927,2.729,4.487,2.729,5.267C25.398,12.72,23.253,15.061,20.521,15.061z"/>
		<path fill="#FFFFFF" d="M10.77,22.277c-3.512-0.78-6.048-3.707-6.048-7.412c0-0.196,0-0.196,0-0.391
			c0-0.391-0.194-0.78-0.584-0.78c-0.391-0.195-0.781,0-0.975,0.39c-0.781,1.56-0.975,2.534-0.975,2.926
			c0,3.708,3.12,6.827,6.827,6.827c0.585,0,0.975,0,1.561-0.193c0.39,0,0.585-0.392,0.585-0.781
			C11.354,22.669,11.159,22.277,10.77,22.277z M9.208,23.059c-3.316,0-5.852-2.73-5.852-5.852c0-0.391,0-0.977,0.586-2.146
			c0,3.707,2.535,7.022,6.242,7.998C9.989,23.059,9.599,23.059,9.208,23.059z"/>
	</g>
</g>
</svg>
