<?xml version="1.0" encoding="utf-8"?>
<!-- Generator: Adobe Illustrator 16.0.0, SVG Export Plug-In . SVG Version: 6.00 Build 0)  -->
<svg version="1.2" baseProfile="tiny" id="Layer_1" xmlns="http://www.w3.org/2000/svg" xmlns:xlink="http://www.w3.org/1999/xlink"
	 x="0px" y="0px" width="27px" height="27px" viewBox="0 0 27 27" xml:space="preserve">
<metadata><?xpacket begin="﻿" id="W5M0MpCehiHzreSzNTczkc9d"?>
<x:xmpmeta xmlns:x="adobe:ns:meta/" x:xmptk="Adobe XMP Core 5.3-c011 66.145661, 2012/02/06-14:56:27        ">
   <rdf:RDF xmlns:rdf="http://www.w3.org/1999/02/22-rdf-syntax-ns#">
      <rdf:Description rdf:about=""
            xmlns:dc="http://purl.org/dc/elements/1.1/">
         <dc:format>image/svg+xml</dc:format>
         <dc:title>
            <rdf:Alt>
               <rdf:li xml:lang="x-default">Print</rdf:li>
            </rdf:Alt>
         </dc:title>
      </rdf:Description>
      <rdf:Description rdf:about=""
            xmlns:xmp="http://ns.adobe.com/xap/1.0/"
            xmlns:xmpGImg="http://ns.adobe.com/xap/1.0/g/img/">
         <xmp:MetadataDate>2018-02-28T09:07:46+07:00</xmp:MetadataDate>
         <xmp:ModifyDate>2018-02-28T09:07:46+07:00</xmp:ModifyDate>
         <xmp:CreateDate>2018-02-28T09:07:46+07:00</xmp:CreateDate>
         <xmp:CreatorTool>Adobe Illustrator CS6 (Macintosh)</xmp:CreatorTool>
         <xmp:Thumbnails>
            <rdf:Alt>
               <rdf:li rdf:parseType="Resource">
                  <xmpGImg:width>256</xmpGImg:width>
                  <xmpGImg:height>256</xmpGImg:height>
                  <xmpGImg:format>JPEG</xmpGImg:format>
                  <xmpGImg:image>/9j/4AAQSkZJRgABAgEASABIAAD/7QAsUGhvdG9zaG9wIDMuMAA4QklNA+0AAAAAABAASAAAAAEA&#xA;AQBIAAAAAQAB/+4ADkFkb2JlAGTAAAAAAf/bAIQABgQEBAUEBgUFBgkGBQYJCwgGBggLDAoKCwoK&#xA;DBAMDAwMDAwQDA4PEA8ODBMTFBQTExwbGxscHx8fHx8fHx8fHwEHBwcNDA0YEBAYGhURFRofHx8f&#xA;Hx8fHx8fHx8fHx8fHx8fHx8fHx8fHx8fHx8fHx8fHx8fHx8fHx8fHx8fHx8f/8AAEQgBAAEAAwER&#xA;AAIRAQMRAf/EAaIAAAAHAQEBAQEAAAAAAAAAAAQFAwIGAQAHCAkKCwEAAgIDAQEBAQEAAAAAAAAA&#xA;AQACAwQFBgcICQoLEAACAQMDAgQCBgcDBAIGAnMBAgMRBAAFIRIxQVEGE2EicYEUMpGhBxWxQiPB&#xA;UtHhMxZi8CRygvElQzRTkqKyY3PCNUQnk6OzNhdUZHTD0uIIJoMJChgZhJRFRqS0VtNVKBry4/PE&#xA;1OT0ZXWFlaW1xdXl9WZ2hpamtsbW5vY3R1dnd4eXp7fH1+f3OEhYaHiImKi4yNjo+Ck5SVlpeYmZ&#xA;qbnJ2en5KjpKWmp6ipqqusra6voRAAICAQIDBQUEBQYECAMDbQEAAhEDBCESMUEFURNhIgZxgZEy&#xA;obHwFMHR4SNCFVJicvEzJDRDghaSUyWiY7LCB3PSNeJEgxdUkwgJChgZJjZFGidkdFU38qOzwygp&#xA;0+PzhJSktMTU5PRldYWVpbXF1eX1RlZmdoaWprbG1ub2R1dnd4eXp7fH1+f3OEhYaHiImKi4yNjo&#xA;+DlJWWl5iZmpucnZ6fkqOkpaanqKmqq6ytrq+v/aAAwDAQACEQMRAD8A9U4q7FXYq7FXYq7FXYq7&#xA;FXYq7FUu1zzHoGg2v1vWtRt9Ot+0lzIsYJ8F5EFj7DFXk/mX/nK38vNNLR6RDda3MK0eNPq8G3i8&#xA;1H+6M5LhRbzPXf8AnLfz1dlk0jTrLS4j9l3D3Uw/2TFI/wDknh4UWwbVPzy/NnUixn8y3UQbta8L&#xA;UAdNvQWM4aC2xq982eab4sb3Wb66LfaM1zNJXeu/Jj33w0hLJJZJXMkrs7nqzEkmm3U4q6OWSJxJ&#xA;E7I46MpIIrt1GKpnZ+a/NNjT6lrF9a8fs+jczR03rtxYd98aVkulfnl+bGmMpg8y3coX9m6KXQO1&#xA;N/XWQ4KCbZzoX/OW/nq0Kpq+nWWqRD7ToHtZj/slLx/8k8HCtvTPLX/OVv5eakVj1eG60SY0q8if&#xA;WIN/B4av98YwcKbesaH5j0DXrX63ouo2+o2/eS2kWQA+DcSSp9jkUpjirsVdirsVdirsVdirsVdi&#xA;rsVdirsVdirsVdirsVdirsVYp55/NHyX5JtvU1y/VLlhWHT4aS3UnhxiB2H+U5C++EBbfOnnn/nK&#xA;vzdqpktfLECaHZHYXLcZrth/rMPTSvspI/myQixt4vqeq6pqt497qd3NfXcn27i4kaWQ/NnJOSQh&#xA;cVdirsVdirsVdirsVdirsVdiqK0zVdU0q8S90y7msbuP7FxbyNFIPkyEHFXtHkb/AJyr83aUY7Xz&#xA;PAmuWQ2NyvGG7Uf6yj03p7qCf5siYpt9F+RvzR8l+drb1NDv1e5UVm0+akV1H48oidx/lISvvkSG&#xA;VsrwK7FXYq7FXYq7FXYq7FXYq7FXYq7FXYq7FULqmq6bpOnzajqdzHZ2NuvOe4mYIijpuT49B44q&#xA;+aPzQ/5ymvbpptL8jKbW13R9alX9846fuI2/ux/lN8XspyYixJfP13eXd7cyXV5PJc3Uzcpp5maS&#xA;R2PdmYkk/PJIUcVdirsVdirsVdirsVdirsVdirsVdirsVdiqtaXl3ZXMd1ZzyW11C3KGeFmjkRh3&#xA;VlIIPyxV9A/lf/zlNe2rQ6X55U3Vrsia1Ev75B0/fxr/AHg/yl+L2Y5ExSC+l9L1XTdW0+HUdMuY&#xA;7yxuF5wXELB0YdNiPDofDIMkVirsVdirsVdirsVdirsVdirsVdirF/zB/Mfy15F0Y6jrM37x6rZ2&#xA;MdDPO4/ZRT2H7THYfcMIFq+M/wAyvzY80eftR9bUpfq+mxMTZaVCx9GIbgE9PUkod3P0UG2TApgS&#xA;wvCrsVdirsVdirsVdirsVdirsVdirsVdirsVdirsVdirsVZp+Wv5seafIOpCbTZfX02Vgb3SpWPo&#xA;SjoSOvpyU6Ov01G2Ai1BfZn5ffmP5a89aMNR0ab94lFvLGSgngc/suo7H9lhsfvGQIpmyjArsVdi&#xA;rsVdirsVdirsVdirCPzV/NXQ/wAv9DN1dEXGq3AK6bpqmjyuP2m/ljX9pvoG+EC0Evifzb5u1/zZ&#xA;rc2s65cm5vJth+ykaD7McaDZUWvT6TU1OWAMUmxV2KuxV2KuxV2KuxV2KuxV2KuxV2KuxV2KuxV2&#xA;KuxV2KuxV2Kpz5S83a/5T1uHWdDuTbXkOx/aSRD9qORDsyNTp9IoaHEhX2x+VX5q6H+YGhi6tSLf&#xA;VbcBdS01jV4nP7S/zRt+y30HfKyKZAs3wJdirsVdirsVdirsVYv+Y/5g6N5F8tTazqJ5yf3djZqa&#xA;PPORVUXwHdm7D6BhAtXwx5u82635s1+51zWZvWvLk9BskaLskca78UUdPvO5JywBgk2KuxV2KuxV&#xA;2KuxV2KuxV2KuxV2KuxV2KuxV2KuxV2KuxV2KuxV2KuxVOfKPm3W/Kev22uaNN6N5bHod0kRtnjk&#xA;XbkjDr943AOJCvuf8uPzB0bz15ah1nTjwk/u76zY1eCcCrI3iO6t3H0jKyKZsowK7FXYq7FXYqhd&#xA;V1TT9J0251PUZlt7Gzjaa4nfoqIKk7dfkOuKvhX82PzK1Hz95ol1KblFptvyh0qyJ2ihr1IBI9SS&#xA;lXP0dAMsApgSwvCrsVdirsVdirsVdirsVdirsVdirsVdirsVdirsVdirsVdirsVdirsVdirsVZp+&#xA;U/5lal5B80xalCWl02fjFqtkDtLBXqAdvUjryQ/R0JwEWoL7q0rVNP1bTbbU9OmW4sbyNZredOjI&#xA;4qDv0+R6ZWzRWKuxV2KuxV8vf85Tfmg11er5G0ub/RbUrLrTodnm+1HBt2j+03+VTuuTiGJL54yS&#xA;HYq7FXYq7FXYq7FXYq7FXYq7FXYq7FXYq7FXYq7FXYq7FXYq7FXYq7FXYq7FXYq+h/8AnFn80Gtb&#xA;1vI2qTf6LdFpdFdzsk32pIN+0n2l/wAqvdsjIJBfUOQZOxV2KsU/NHzzbeSfJd/rklGuUX0dPhP+&#xA;7LqUERLTwG7t/kg4QFL4IvLu5vbue8upGmurmRpp5m3Z5JGLMx9yTXLGCjirsVdirsVdirsVdirs&#xA;VdirsVdirsVdirsVdirsVdirsVdirsVdirsVdirsVdirsVVrO7ubK7gvLWRobq2kWaCZdmSSNgys&#xA;PcEVxV97/ld55tvO3kuw1yOi3Lr6OoQj/dd1EAJVp4HZ1/ySMrIZhleBXYq+Sf8AnKvzydV83QeW&#xA;LWStloacrkDo13MoZvnwj4j2JbJxDEvDckh2KuxV2KuxV2KuxV2KuxV2KuxV2KuxV2KuxV2KuxV2&#xA;KuxV2KuxV2KuxV2KuxV2KuxV2Kvcv+cVPPJ0rzdP5YupKWWuJytgei3cKll+XOPkPchcjIJD62yD&#xA;JLvMeuWug6BqOtXf+8+nW8lzIO5EaluI92IoMVfnlqup3mq6pd6nev6l3fTSXFw/jJKxdj95y1gh&#xA;cVdirsVdirsVdirsVdirsVdirsVdirsVex/lF/zjtqHnfSRr2p3x0vR5WZLMInqTTlDxZhUqqoGB&#xA;FdySDt3wGSQHfm7/AM47ah5I0k69pl8dU0eJlS8Dp6c0Bc8VY0LKyFiBXYgkbd8RJSHjmFDsVdir&#xA;sVdirsVdirsVdirsVdirsVdiqK0rU7zStUtNTsn9O7sZo7i3fwkiYOp+8Yq/Q3y5rlrr2gadrVp/&#xA;vPqNvHcxjuBIobifdSaHKmbyf/nK3zKdN/LyHSI2pNrd0kbitP3Fv++c/wDBiMfTkooL5AybF2Ku&#xA;xV2KuxV2KuxV2KuxV2KuxV2KuxV2Kvvj8noo4/yt8rqg4qdOgYgeLpyY/STlZ5swh/zuAP5T+Zq/&#xA;8sbf8SXEc0F8H5YxdirsVdirsVdirsVdirsVdirsVdirsVdir6//AOcUvMp1L8vJtIkas2iXTxoK&#xA;1/cXH75D/wAGZB9GQkyDzP8A5y3103fnrTtIRqxaXZB3XwmunLN/yTSPDFBeGZJDsVdirsVdirsV&#xA;dirsVdirsVdirsVdirsVffX5Rf8Akr/K3/bMtv8Ak2MrPNmEN+d3/kp/M3/MG3/ElxHNBfB2WMXY&#xA;q7FXYq7FXYq7FXYq7FXYq7FXYq7FXYq9z/5xI102nnrUdIdqRapZF0XxmtXDL/yTeTIySGDfnlqr&#xA;an+bHmWctyEV2bVemwtUWCm3vHhHJSwXCh2KuxV2KuxV2KuxV2KuxV2KuxV2KuxV2Kvvr8ov/JX+&#xA;Vv8AtmW3/JsZWebMIb87v/JT+Zv+YNv+JLiOaC+DssYuxV2KuxV2KuxV2KuxV2KuxV2KuxV2KuxV&#xA;nX5HaodN/Nny1cA0Et2LU9N/rSNb03/4yYDySGNea7z695p1i9ry+tX1zNy339SZmrvv374QhKsV&#xA;dirsVdirsVdirsVdirsVdirsVdirsVdir76/KL/yV/lb/tmW3/JsZWebMIb87v8AyU/mb/mDb/iS&#xA;4jmgvg7LGLsVdirsVdirsVdirsVdirsVdirsVdirsVTXypefUfNOj3teP1W+tpuW+3pzK1dt+3bE&#xA;qlksjyyPLIau7FmPSpJqemKrcVdirsVdirsVdirsVdirsVex/wDOO35RaT531C+1PXg0uj6WUQWa&#xA;MUM80lTRmWjBFVd6EEkjfrgkUgPpSL8nfytijEa+V9OKr0LwK7fSzVJyFlNL/wDlUX5X/wDUraZ/&#xA;0jR/0xspp3/Kovyv/wCpW0z/AKRo/wCmNlad/wAqi/K//qVtM/6Ro/6Y2Vpk9hYWen2cNlZQpbWd&#xA;sgjggjAVERRQKoHQDArWo6dYalYzWGoW6XVlcLwnt5VDI6+DKdjirGf+VRflf/1K2mf9I0f9MNla&#xA;d/yqL8r/APqVtM/6Ro/6Y2Vp3/Kovyv/AOpW0z/pGj/pjZWlsv5PflbJGUbyvpwVtiVgRD9DLQjG&#xA;ytPmr/nIn8otJ8kahY6noIaLR9ULobN2LmCaOhorNVijK21SSCDv0ycSxIeOYUOxV2KuxV2KuxV2&#xA;KuxV2KropHikSWM0dGDKetCDUdcVdLG8UjxSCjoxVh1oQaHpiq3FXYq7FXYq7FXYq7FXYq7FXsf/&#xA;ADjt+buk+SNQvtM14tFo+qFHF4ilzBNHUVZVqxRlbegJBA264JBIL6NH53flORX/ABNZ/wDBN/zT&#xA;kKKbb/5Xd+U//UzWf/BN/wA040Vt3/K7vyn/AOpms/8Agm/5pxorbv8Ald35T/8AUzWf/BN/zTjR&#xA;W2X6dqNjqVhb6hYTLcWV0iy286fZdGFVYfMYErdV1XT9J0+fUdRnW2sbZedxcPsqKNqmmKsS/wCV&#xA;3flP/wBTNZ/8E3/NOGii3f8AK7vyn/6maz/4Jv8AmnGitu/5Xd+U/wD1M1n/AME3/NONFbaP53fl&#xA;OBX/ABNZ/wDBN/zTjRW3zl/zkT+buk+d9QsdM0EtLo+ll3N46lDPNJQVVWowRVXaoBJJ26ZOIQS8&#xA;cwodirsVdirsVdirsVdirsVXRRvLIkUYq7sFUdKkmg64qmfmyyNj5p1myK8Ta31zCV329OZlpvv2&#xA;74hUqxV2KuxV2KuxV2KuxV2KuxV2KuxV2KuxV2Kvvr8ov/JX+Vv+2Zbf8mxlZ5swhvzu/wDJT+Zv&#xA;+YNv+JLiOaC+DssYuxV2KuxV2KuxV2KuxV2KuxV2KuxV2KuxVNfKln9e806PZU5fWr62h477+pMq&#xA;02379sSrJfzy0s6b+bPmWArxEt19aHgRdIs9dveTAOSSwXCh2KuxV2KuxV2KuxV2KuxV2KuxV2Ku&#xA;xV2Kvvr8ov8AyV/lb/tmW3/JsZWebMIb87v/ACU/mb/mDb/iS4jmgvg7LGLsVdirsVdirsVdirsV&#xA;dirsVdirsVdirsVZ1+R2lnUvzZ8tW4FRFdi6PTb6qjXFd/8AjHgPJIZz/wA5b6EbTz1p2rotItUs&#xA;gjt4zWrlW/5JvHgipeGZJDsVdirsVdirsVdirsVdirsVdirsVdirsVffX5Rf+Sv8rf8AbMtv+TYy&#xA;s82YQ353f+Sn8zf8wbf8SXEc0F8HZYxdirsVdirsVdirsVdirsVdirsVdirsVdir3P8A5xI0I3fn&#xA;rUdXdaxaXZFEbwmunCr/AMk0kyMkh6Z/zlb5aOpfl5Dq8a1m0S6SRzSv7i4/cuP+DMZ+jBFJfIGT&#xA;YuxV2KuxV2KuxV2KuxV2KuxV2KuxV2KuxV97/k7LHL+VvldozyUadAhP+Ui8WH0EZWebIKH53ED8&#xA;p/M1f+WNv+JLiOal8H5YxdirsVdirsVdirsVdirsVdirsVdirsVdir6//wCcUvLR038vJtXkWk2t&#xA;3TyIaU/cW/7lB/wYkP05CTIPWPMeh2uvaBqOi3f+8+o28ltIe4EileQ91JqMil+eWq6ZeaVql3pl&#xA;6np3djNJb3CeEkTFGH3jLWCFxV2KuxV2KuxV2KuxV2KuxV2KuxV2KuxV7H+UX/OROoeSNJGg6nYn&#xA;VNHiZnsyj+nNAXPJlFQyshYk02IJO/bAYpBd+bv/ADkTqHnfSToOmWJ0vR5WV7wu/qTTlDyVTQKq&#xA;oGANNySBv2xEVJeOYUOxV2KuxV2KuxV2KuxV2KuxV2KuxV2KorStMvNV1S00yyT1Lu+mjt7dPGSV&#xA;gij7zir9DfLmh2ug6Bp2i2n+8+nW8dtGe5EaheR92IqcqZpjir5J/wCcq/Ix0rzdB5ntY6WWuJxu&#xA;SOi3cKhW+XOPifchsnEsS8NySHYq7FXYq7FXYq7FXYq7FXYq7FXYq7FXYq7FXYq7FXYq7FXYq7FX&#xA;Yq7FXYq7FXYq7FXYq9y/5xU8jHVfN0/me6jrZaGnG2J6NdzKVX58I+R9iVyMikPrbIMnYqxT80fI&#xA;1t528l3+hyUW5dfW0+Y/7ruogTE1fA7o3+SThBUvgi8tLmyu57O6jaG6tpGhnhbZkkjYqyn3BFMs&#xA;YKOKuxV2KuxV2KuxV2KuxV2KuxV2KuxV2KuxV2KuxV2KuxV2KuxV2KuxV2KuxV2KuxVVtLS5vLuG&#xA;0tY2murmRYoIUFWeRyFVVHiSaYq++Pyu8jW3knyXYaHHRrlF9bUJh/uy6lAMrV8Bsi/5IGVkswyv&#xA;ArsVdir5e/5ym/K9rW9XzzpcP+i3RWLWkQbJN9mOfbtJ9lv8qndsnEsSHzxkkOxV2KuxV2KuxV2K&#xA;uxV2KuxV2KuxV2KuxV2KuxV2KuxV2KuxV2KuxV2KuxV2KuxV9D/84s/le11et551SH/RbUtFoqON&#xA;nm+zJPv2j+yv+VXuuRkUgPqHIMnYq7FXYqhdU0uw1XTbnTdQgW5sbuNobiB91ZHFCP7cVfCv5sfl&#xA;rqPkHzRLps3KXTbjlNpV6RtLDXoSAB6kdaOPp6EZYDbAhheFXYq7FXYq7FXYq7FXYq7FXYq7FXYq&#xA;7FXYq7FXYq7FXYq7FXYq7FXYq7FXYqzT8p/y11Lz95pi02ENFpsHGXVb0DaKCvQE7epJTig+noDg&#xA;JpQH3VpWl6fpOm22madCtvY2caw28CdFRBQDfr8z1ytmisVdirsVdirsVYv+Y/5faN568tTaNqI4&#xA;Sf3ljeKKvBOBRXXxHZl7j6DhBpXwx5u8pa35T1+50PWYfRvLY9RukiNukkbbckYdPuO4IywFgk2K&#xA;uxV2KuxV2KuxV2KuxV2KuxV2KuxV2KuxV2KuxV2KuxV2KuxV2KuxVOfKPlLW/Nmv22h6ND615cnq&#xA;dkjRd3kkbfiijr9w3IGJKvuf8uPy+0byL5ah0bThzk/vL68YUeecijO3gOyr2H0nKybZsowK7FXY&#xA;q7FXYq7FXYqwj81fyq0P8wNDNrdAW+q24LabqSirxOf2W/mjb9pfpG+EGkEPifzb5R1/ynrc2ja5&#xA;bG2vIdx+0kiH7MkbjZkanX6DQ1GWAsUmxV2KuxV2KuxV2KuxV2KuxV2KuxV2KuxV2KuxV2KuxV2K&#xA;uxV2Kpz5S8o6/wCbNbh0bQ7Y3N5Nuf2UjQfakkc7Ki16/QKmgxJV9sflV+VWh/l/oYtbUC41W4Ab&#xA;UtSYUeVx+yv8sa/sr9J3ysm2QDN8CXYq7FXYq7FXYq7FXYq7FWL/AJg/lx5a89aMdO1mH94lWs76&#xA;Ogngc/tIx7H9pTsfuOEGlfGf5lflP5o8g6j6OpRfWNNlYiy1WFT6Mo3IB6+nJQbofoqN8mDbAhhe&#xA;FXYq7FXYq7FXYq7FXYq7FXYq7FXYq7FXYq7FXYq7FXYqzT8tfyn80+ftSEOmxehpsTAXuqyqfQiH&#xA;UgdPUkp0RfpoN8BNKA+zPy+/Ljy15F0Yado0P7x6NeX0lDPO4/adh2H7KjYfecgTbNlGBXYq7FXY&#xA;q7FXYq7FXYq7FXYq7FULqml6bqthPp+pW0d3Y3K8J7eZQ6Mp8QfwxV80fmh/zize2rTap5GY3Vru&#xA;76LK375B1/cSN/eD/Jb4vdjkxJiQ+fryzvLK6ltLyCS2uoWKTQSqUkRh2ZWAIOSQo4q7FXYq7FXY&#xA;q7FXYq7FXYq7FXYq7FXYq7FVa0s7u9uY7WzgkubqZuMMEKtJI7HsqqCSflir6B/K/wD5xZvbpodU&#xA;88sbW12dNFib9846/v5F/ux/kr8XupyJkkB9L6XpWm6Tp8OnaZbR2djbrwgt4VCIo67AePU+OQZI&#xA;rFXYq7FXYq7FXYq7FXYq7FXYq7FXYq7FXYqxTzz+V/kvzrbGPXLBXuQKRahDSO6j8OMoG4/yWqvt&#xA;hBWnzp55/wCcVPN2lGS68sTprlkNxbNxhu1H+qx9N6ezAn+XJCTGni+p6VqmlXj2Wp2k1jdx/bt7&#xA;iNopB81cA5JCFxV2KuxV2KuxV2KuxV2KuxV2KorTNK1TVbxLLTLSa+u5PsW9vG0sh+SoCcVe0eRv&#xA;+cVPN2qmO68zzpodkdzbLxmu2H+qp9NK+7Ej+XImSafRfkb8rvJfkm29PQ7BUuWFJtQmpLdSePKU&#xA;jYf5KAL7ZEllTK8CuxV2KuxV2KuxV2KuxV2KuxV2KuxV2KuxV2KuxV2KuxVLtc8uaBr1r9U1rTrf&#xA;UbftHcxrIAfFeQJU+4xV5P5l/wCcUvy81ItJpE11okxrRI3+sQb+KTVf7pBkuJFPM9d/5xI89WhZ&#xA;9I1Gy1SIfZRy9rMf9iweP/kph4kUwbVPyN/NnTSwn8tXUoXva8LoEddvQaQ4bC0xq98p+abEsL3R&#xA;r61K/aE1tNHTem/JR32w2hLJIpInMcqMjjqrAgiu/Q4q6OKSVxHEjO56KoJJpv0GKpnZeU/NN8VF&#xA;lo19dFvsiG2mkrvTbip77Y2rJdL/ACN/NnUiog8tXUQbvdcLUAdd/XaM4LCaZzoX/OJHnq7Kvq+o&#xA;2WlxH7SIXuph/sVCR/8AJTBxLT0zy1/zil+XmmlZNXmutbmFKpI/1eDbwSGj/fIcHEmnrGh+XNA0&#xA;G1+qaLp1vp1v3jto1jBPi3EAsfc5FKY4q7FXYq7FXYq7FXYq7FXYq7FX/9k=</xmpGImg:image>
               </rdf:li>
            </rdf:Alt>
         </xmp:Thumbnails>
      </rdf:Description>
      <rdf:Description rdf:about=""
            xmlns:xmpMM="http://ns.adobe.com/xap/1.0/mm/"
            xmlns:stRef="http://ns.adobe.com/xap/1.0/sType/ResourceRef#"
            xmlns:stEvt="http://ns.adobe.com/xap/1.0/sType/ResourceEvent#">
         <xmpMM:InstanceID>xmp.iid:0480117407206811822ACB70713C84AF</xmpMM:InstanceID>
         <xmpMM:DocumentID>xmp.did:0480117407206811822ACB70713C84AF</xmpMM:DocumentID>
         <xmpMM:OriginalDocumentID>uuid:5D20892493BFDB11914A8590D31508C8</xmpMM:OriginalDocumentID>
         <xmpMM:RenditionClass>proof:pdf</xmpMM:RenditionClass>
         <xmpMM:DerivedFrom rdf:parseType="Resource">
            <stRef:instanceID>xmp.iid:0380117407206811822ACB70713C84AF</stRef:instanceID>
            <stRef:documentID>xmp.did:0380117407206811822ACB70713C84AF</stRef:documentID>
            <stRef:originalDocumentID>uuid:5D20892493BFDB11914A8590D31508C8</stRef:originalDocumentID>
            <stRef:renditionClass>proof:pdf</stRef:renditionClass>
         </xmpMM:DerivedFrom>
         <xmpMM:History>
            <rdf:Seq>
               <rdf:li rdf:parseType="Resource">
                  <stEvt:action>saved</stEvt:action>
                  <stEvt:instanceID>xmp.iid:0380117407206811822ACB70713C84AF</stEvt:instanceID>
                  <stEvt:when>2018-02-28T09:06:56+07:00</stEvt:when>
                  <stEvt:softwareAgent>Adobe Illustrator CS6 (Macintosh)</stEvt:softwareAgent>
                  <stEvt:changed>/</stEvt:changed>
               </rdf:li>
               <rdf:li rdf:parseType="Resource">
                  <stEvt:action>saved</stEvt:action>
                  <stEvt:instanceID>xmp.iid:0480117407206811822ACB70713C84AF</stEvt:instanceID>
                  <stEvt:when>2018-02-28T09:07:46+07:00</stEvt:when>
                  <stEvt:softwareAgent>Adobe Illustrator CS6 (Macintosh)</stEvt:softwareAgent>
                  <stEvt:changed>/</stEvt:changed>
               </rdf:li>
            </rdf:Seq>
         </xmpMM:History>
      </rdf:Description>
      <rdf:Description rdf:about=""
            xmlns:illustrator="http://ns.adobe.com/illustrator/1.0/">
         <illustrator:StartupProfile>Print</illustrator:StartupProfile>
      </rdf:Description>
      <rdf:Description rdf:about=""
            xmlns:xmpTPg="http://ns.adobe.com/xap/1.0/t/pg/"
            xmlns:stDim="http://ns.adobe.com/xap/1.0/sType/Dimensions#"
            xmlns:xmpG="http://ns.adobe.com/xap/1.0/g/">
         <xmpTPg:HasVisibleOverprint>False</xmpTPg:HasVisibleOverprint>
         <xmpTPg:HasVisibleTransparency>False</xmpTPg:HasVisibleTransparency>
         <xmpTPg:NPages>1</xmpTPg:NPages>
         <xmpTPg:MaxPageSize rdf:parseType="Resource">
            <stDim:w>27.000488</stDim:w>
            <stDim:h>27.000000</stDim:h>
            <stDim:unit>Pixels</stDim:unit>
         </xmpTPg:MaxPageSize>
         <xmpTPg:PlateNames>
            <rdf:Seq>
               <rdf:li>Cyan</rdf:li>
               <rdf:li>Magenta</rdf:li>
               <rdf:li>Yellow</rdf:li>
               <rdf:li>Black</rdf:li>
            </rdf:Seq>
         </xmpTPg:PlateNames>
         <xmpTPg:SwatchGroups>
            <rdf:Seq>
               <rdf:li rdf:parseType="Resource">
                  <xmpG:groupName>Default Swatch Group</xmpG:groupName>
                  <xmpG:groupType>0</xmpG:groupType>
                  <xmpG:Colorants>
                     <rdf:Seq>
                        <rdf:li rdf:parseType="Resource">
                           <xmpG:swatchName>White</xmpG:swatchName>
                           <xmpG:mode>RGB</xmpG:mode>
                           <xmpG:type>PROCESS</xmpG:type>
                           <xmpG:red>255</xmpG:red>
                           <xmpG:green>255</xmpG:green>
                           <xmpG:blue>255</xmpG:blue>
                        </rdf:li>
                        <rdf:li rdf:parseType="Resource">
                           <xmpG:swatchName>Black</xmpG:swatchName>
                           <xmpG:mode>RGB</xmpG:mode>
                           <xmpG:type>PROCESS</xmpG:type>
                           <xmpG:red>35</xmpG:red>
                           <xmpG:green>31</xmpG:green>
                           <xmpG:blue>32</xmpG:blue>
                        </rdf:li>
                        <rdf:li rdf:parseType="Resource">
                           <xmpG:swatchName>CMYK Red</xmpG:swatchName>
                           <xmpG:mode>RGB</xmpG:mode>
                           <xmpG:type>PROCESS</xmpG:type>
                           <xmpG:red>237</xmpG:red>
                           <xmpG:green>28</xmpG:green>
                           <xmpG:blue>36</xmpG:blue>
                        </rdf:li>
                        <rdf:li rdf:parseType="Resource">
                           <xmpG:swatchName>CMYK Yellow</xmpG:swatchName>
                           <xmpG:mode>RGB</xmpG:mode>
                           <xmpG:type>PROCESS</xmpG:type>
                           <xmpG:red>255</xmpG:red>
                           <xmpG:green>242</xmpG:green>
                           <xmpG:blue>0</xmpG:blue>
                        </rdf:li>
                        <rdf:li rdf:parseType="Resource">
                           <xmpG:swatchName>CMYK Green</xmpG:swatchName>
                           <xmpG:mode>RGB</xmpG:mode>
                           <xmpG:type>PROCESS</xmpG:type>
                           <xmpG:red>0</xmpG:red>
                           <xmpG:green>166</xmpG:green>
                           <xmpG:blue>81</xmpG:blue>
                        </rdf:li>
                        <rdf:li rdf:parseType="Resource">
                           <xmpG:swatchName>CMYK Cyan</xmpG:swatchName>
                           <xmpG:mode>RGB</xmpG:mode>
                           <xmpG:type>PROCESS</xmpG:type>
                           <xmpG:red>0</xmpG:red>
                           <xmpG:green>174</xmpG:green>
                           <xmpG:blue>239</xmpG:blue>
                        </rdf:li>
                        <rdf:li rdf:parseType="Resource">
                           <xmpG:swatchName>CMYK Blue</xmpG:swatchName>
                           <xmpG:mode>RGB</xmpG:mode>
                           <xmpG:type>PROCESS</xmpG:type>
                           <xmpG:red>46</xmpG:red>
                           <xmpG:green>49</xmpG:green>
                           <xmpG:blue>146</xmpG:blue>
                        </rdf:li>
                        <rdf:li rdf:parseType="Resource">
                           <xmpG:swatchName>CMYK Magenta</xmpG:swatchName>
                           <xmpG:mode>RGB</xmpG:mode>
                           <xmpG:type>PROCESS</xmpG:type>
                           <xmpG:red>236</xmpG:red>
                           <xmpG:green>0</xmpG:green>
                           <xmpG:blue>140</xmpG:blue>
                        </rdf:li>
                        <rdf:li rdf:parseType="Resource">
                           <xmpG:swatchName>C=15 M=100 Y=90 K=10</xmpG:swatchName>
                           <xmpG:mode>RGB</xmpG:mode>
                           <xmpG:type>PROCESS</xmpG:type>
                           <xmpG:red>190</xmpG:red>
                           <xmpG:green>30</xmpG:green>
                           <xmpG:blue>45</xmpG:blue>
                        </rdf:li>
                        <rdf:li rdf:parseType="Resource">
                           <xmpG:swatchName>C=0 M=90 Y=85 K=0</xmpG:swatchName>
                           <xmpG:mode>RGB</xmpG:mode>
                           <xmpG:type>PROCESS</xmpG:type>
                           <xmpG:red>239</xmpG:red>
                           <xmpG:green>65</xmpG:green>
                           <xmpG:blue>54</xmpG:blue>
                        </rdf:li>
                        <rdf:li rdf:parseType="Resource">
                           <xmpG:swatchName>C=0 M=80 Y=95 K=0</xmpG:swatchName>
                           <xmpG:mode>RGB</xmpG:mode>
                           <xmpG:type>PROCESS</xmpG:type>
                           <xmpG:red>241</xmpG:red>
                           <xmpG:green>90</xmpG:green>
                           <xmpG:blue>41</xmpG:blue>
                        </rdf:li>
                        <rdf:li rdf:parseType="Resource">
                           <xmpG:swatchName>C=0 M=50 Y=100 K=0</xmpG:swatchName>
                           <xmpG:mode>RGB</xmpG:mode>
                           <xmpG:type>PROCESS</xmpG:type>
                           <xmpG:red>247</xmpG:red>
                           <xmpG:green>148</xmpG:green>
                           <xmpG:blue>30</xmpG:blue>
                        </rdf:li>
                        <rdf:li rdf:parseType="Resource">
                           <xmpG:swatchName>C=0 M=35 Y=85 K=0</xmpG:swatchName>
                           <xmpG:mode>RGB</xmpG:mode>
                           <xmpG:type>PROCESS</xmpG:type>
                           <xmpG:red>251</xmpG:red>
                           <xmpG:green>176</xmpG:green>
                           <xmpG:blue>64</xmpG:blue>
                        </rdf:li>
                        <rdf:li rdf:parseType="Resource">
                           <xmpG:swatchName>C=5 M=0 Y=90 K=0</xmpG:swatchName>
                           <xmpG:mode>RGB</xmpG:mode>
                           <xmpG:type>PROCESS</xmpG:type>
                           <xmpG:red>249</xmpG:red>
                           <xmpG:green>237</xmpG:green>
                           <xmpG:blue>50</xmpG:blue>
                        </rdf:li>
                        <rdf:li rdf:parseType="Resource">
                           <xmpG:swatchName>C=20 M=0 Y=100 K=0</xmpG:swatchName>
                           <xmpG:mode>RGB</xmpG:mode>
                           <xmpG:type>PROCESS</xmpG:type>
                           <xmpG:red>215</xmpG:red>
                           <xmpG:green>223</xmpG:green>
                           <xmpG:blue>35</xmpG:blue>
                        </rdf:li>
                        <rdf:li rdf:parseType="Resource">
                           <xmpG:swatchName>C=50 M=0 Y=100 K=0</xmpG:swatchName>
                           <xmpG:mode>RGB</xmpG:mode>
                           <xmpG:type>PROCESS</xmpG:type>
                           <xmpG:red>141</xmpG:red>
                           <xmpG:green>198</xmpG:green>
                           <xmpG:blue>63</xmpG:blue>
                        </rdf:li>
                        <rdf:li rdf:parseType="Resource">
                           <xmpG:swatchName>C=75 M=0 Y=100 K=0</xmpG:swatchName>
                           <xmpG:mode>RGB</xmpG:mode>
                           <xmpG:type>PROCESS</xmpG:type>
                           <xmpG:red>57</xmpG:red>
                           <xmpG:green>181</xmpG:green>
                           <xmpG:blue>74</xmpG:blue>
                        </rdf:li>
                        <rdf:li rdf:parseType="Resource">
                           <xmpG:swatchName>C=85 M=10 Y=100 K=10</xmpG:swatchName>
                           <xmpG:mode>RGB</xmpG:mode>
                           <xmpG:type>PROCESS</xmpG:type>
                           <xmpG:red>0</xmpG:red>
                           <xmpG:green>148</xmpG:green>
                           <xmpG:blue>68</xmpG:blue>
                        </rdf:li>
                        <rdf:li rdf:parseType="Resource">
                           <xmpG:swatchName>C=90 M=30 Y=95 K=30</xmpG:swatchName>
                           <xmpG:mode>RGB</xmpG:mode>
                           <xmpG:type>PROCESS</xmpG:type>
                           <xmpG:red>0</xmpG:red>
                           <xmpG:green>104</xmpG:green>
                           <xmpG:blue>56</xmpG:blue>
                        </rdf:li>
                        <rdf:li rdf:parseType="Resource">
                           <xmpG:swatchName>C=75 M=0 Y=75 K=0</xmpG:swatchName>
                           <xmpG:mode>RGB</xmpG:mode>
                           <xmpG:type>PROCESS</xmpG:type>
                           <xmpG:red>43</xmpG:red>
                           <xmpG:green>182</xmpG:green>
                           <xmpG:blue>115</xmpG:blue>
                        </rdf:li>
                        <rdf:li rdf:parseType="Resource">
                           <xmpG:swatchName>C=80 M=10 Y=45 K=0</xmpG:swatchName>
                           <xmpG:mode>RGB</xmpG:mode>
                           <xmpG:type>PROCESS</xmpG:type>
                           <xmpG:red>0</xmpG:red>
                           <xmpG:green>167</xmpG:green>
                           <xmpG:blue>157</xmpG:blue>
                        </rdf:li>
                        <rdf:li rdf:parseType="Resource">
                           <xmpG:swatchName>C=70 M=15 Y=0 K=0</xmpG:swatchName>
                           <xmpG:mode>RGB</xmpG:mode>
                           <xmpG:type>PROCESS</xmpG:type>
                           <xmpG:red>39</xmpG:red>
                           <xmpG:green>170</xmpG:green>
                           <xmpG:blue>225</xmpG:blue>
                        </rdf:li>
                        <rdf:li rdf:parseType="Resource">
                           <xmpG:swatchName>C=85 M=50 Y=0 K=0</xmpG:swatchName>
                           <xmpG:mode>RGB</xmpG:mode>
                           <xmpG:type>PROCESS</xmpG:type>
                           <xmpG:red>28</xmpG:red>
                           <xmpG:green>117</xmpG:green>
                           <xmpG:blue>188</xmpG:blue>
                        </rdf:li>
                        <rdf:li rdf:parseType="Resource">
                           <xmpG:swatchName>C=100 M=95 Y=5 K=0</xmpG:swatchName>
                           <xmpG:mode>RGB</xmpG:mode>
                           <xmpG:type>PROCESS</xmpG:type>
                           <xmpG:red>43</xmpG:red>
                           <xmpG:green>57</xmpG:green>
                           <xmpG:blue>144</xmpG:blue>
                        </rdf:li>
                        <rdf:li rdf:parseType="Resource">
                           <xmpG:swatchName>C=100 M=100 Y=25 K=25</xmpG:swatchName>
                           <xmpG:mode>RGB</xmpG:mode>
                           <xmpG:type>PROCESS</xmpG:type>
                           <xmpG:red>38</xmpG:red>
                           <xmpG:green>34</xmpG:green>
                           <xmpG:blue>98</xmpG:blue>
                        </rdf:li>
                        <rdf:li rdf:parseType="Resource">
                           <xmpG:swatchName>C=75 M=100 Y=0 K=0</xmpG:swatchName>
                           <xmpG:mode>RGB</xmpG:mode>
                           <xmpG:type>PROCESS</xmpG:type>
                           <xmpG:red>102</xmpG:red>
                           <xmpG:green>45</xmpG:green>
                           <xmpG:blue>145</xmpG:blue>
                        </rdf:li>
                        <rdf:li rdf:parseType="Resource">
                           <xmpG:swatchName>C=50 M=100 Y=0 K=0</xmpG:swatchName>
                           <xmpG:mode>RGB</xmpG:mode>
                           <xmpG:type>PROCESS</xmpG:type>
                           <xmpG:red>146</xmpG:red>
                           <xmpG:green>39</xmpG:green>
                           <xmpG:blue>143</xmpG:blue>
                        </rdf:li>
                        <rdf:li rdf:parseType="Resource">
                           <xmpG:swatchName>C=35 M=100 Y=35 K=10</xmpG:swatchName>
                           <xmpG:mode>RGB</xmpG:mode>
                           <xmpG:type>PROCESS</xmpG:type>
                           <xmpG:red>158</xmpG:red>
                           <xmpG:green>31</xmpG:green>
                           <xmpG:blue>99</xmpG:blue>
                        </rdf:li>
                        <rdf:li rdf:parseType="Resource">
                           <xmpG:swatchName>C=10 M=100 Y=50 K=0</xmpG:swatchName>
                           <xmpG:mode>RGB</xmpG:mode>
                           <xmpG:type>PROCESS</xmpG:type>
                           <xmpG:red>218</xmpG:red>
                           <xmpG:green>28</xmpG:green>
                           <xmpG:blue>92</xmpG:blue>
                        </rdf:li>
                        <rdf:li rdf:parseType="Resource">
                           <xmpG:swatchName>C=0 M=95 Y=20 K=0</xmpG:swatchName>
                           <xmpG:mode>RGB</xmpG:mode>
                           <xmpG:type>PROCESS</xmpG:type>
                           <xmpG:red>238</xmpG:red>
                           <xmpG:green>42</xmpG:green>
                           <xmpG:blue>123</xmpG:blue>
                        </rdf:li>
                        <rdf:li rdf:parseType="Resource">
                           <xmpG:swatchName>C=25 M=25 Y=40 K=0</xmpG:swatchName>
                           <xmpG:mode>RGB</xmpG:mode>
                           <xmpG:type>PROCESS</xmpG:type>
                           <xmpG:red>194</xmpG:red>
                           <xmpG:green>181</xmpG:green>
                           <xmpG:blue>155</xmpG:blue>
                        </rdf:li>
                        <rdf:li rdf:parseType="Resource">
                           <xmpG:swatchName>C=40 M=45 Y=50 K=5</xmpG:swatchName>
                           <xmpG:mode>RGB</xmpG:mode>
                           <xmpG:type>PROCESS</xmpG:type>
                           <xmpG:red>155</xmpG:red>
                           <xmpG:green>133</xmpG:green>
                           <xmpG:blue>121</xmpG:blue>
                        </rdf:li>
                        <rdf:li rdf:parseType="Resource">
                           <xmpG:swatchName>C=50 M=50 Y=60 K=25</xmpG:swatchName>
                           <xmpG:mode>RGB</xmpG:mode>
                           <xmpG:type>PROCESS</xmpG:type>
                           <xmpG:red>114</xmpG:red>
                           <xmpG:green>102</xmpG:green>
                           <xmpG:blue>88</xmpG:blue>
                        </rdf:li>
                        <rdf:li rdf:parseType="Resource">
                           <xmpG:swatchName>C=55 M=60 Y=65 K=40</xmpG:swatchName>
                           <xmpG:mode>RGB</xmpG:mode>
                           <xmpG:type>PROCESS</xmpG:type>
                           <xmpG:red>89</xmpG:red>
                           <xmpG:green>74</xmpG:green>
                           <xmpG:blue>66</xmpG:blue>
                        </rdf:li>
                        <rdf:li rdf:parseType="Resource">
                           <xmpG:swatchName>C=25 M=40 Y=65 K=0</xmpG:swatchName>
                           <xmpG:mode>RGB</xmpG:mode>
                           <xmpG:type>PROCESS</xmpG:type>
                           <xmpG:red>196</xmpG:red>
                           <xmpG:green>154</xmpG:green>
                           <xmpG:blue>108</xmpG:blue>
                        </rdf:li>
                        <rdf:li rdf:parseType="Resource">
                           <xmpG:swatchName>C=30 M=50 Y=75 K=10</xmpG:swatchName>
                           <xmpG:mode>RGB</xmpG:mode>
                           <xmpG:type>PROCESS</xmpG:type>
                           <xmpG:red>169</xmpG:red>
                           <xmpG:green>124</xmpG:green>
                           <xmpG:blue>80</xmpG:blue>
                        </rdf:li>
                        <rdf:li rdf:parseType="Resource">
                           <xmpG:swatchName>C=35 M=60 Y=80 K=25</xmpG:swatchName>
                           <xmpG:mode>RGB</xmpG:mode>
                           <xmpG:type>PROCESS</xmpG:type>
                           <xmpG:red>139</xmpG:red>
                           <xmpG:green>94</xmpG:green>
                           <xmpG:blue>60</xmpG:blue>
                        </rdf:li>
                        <rdf:li rdf:parseType="Resource">
                           <xmpG:swatchName>C=40 M=65 Y=90 K=35</xmpG:swatchName>
                           <xmpG:mode>RGB</xmpG:mode>
                           <xmpG:type>PROCESS</xmpG:type>
                           <xmpG:red>117</xmpG:red>
                           <xmpG:green>76</xmpG:green>
                           <xmpG:blue>41</xmpG:blue>
                        </rdf:li>
                        <rdf:li rdf:parseType="Resource">
                           <xmpG:swatchName>C=40 M=70 Y=100 K=50</xmpG:swatchName>
                           <xmpG:mode>RGB</xmpG:mode>
                           <xmpG:type>PROCESS</xmpG:type>
                           <xmpG:red>96</xmpG:red>
                           <xmpG:green>57</xmpG:green>
                           <xmpG:blue>19</xmpG:blue>
                        </rdf:li>
                        <rdf:li rdf:parseType="Resource">
                           <xmpG:swatchName>C=50 M=70 Y=80 K=70</xmpG:swatchName>
                           <xmpG:mode>RGB</xmpG:mode>
                           <xmpG:type>PROCESS</xmpG:type>
                           <xmpG:red>60</xmpG:red>
                           <xmpG:green>36</xmpG:green>
                           <xmpG:blue>21</xmpG:blue>
                        </rdf:li>
                     </rdf:Seq>
                  </xmpG:Colorants>
               </rdf:li>
               <rdf:li rdf:parseType="Resource">
                  <xmpG:groupName>Grays</xmpG:groupName>
                  <xmpG:groupType>1</xmpG:groupType>
                  <xmpG:Colorants>
                     <rdf:Seq>
                        <rdf:li rdf:parseType="Resource">
                           <xmpG:swatchName>C=0 M=0 Y=0 K=100</xmpG:swatchName>
                           <xmpG:mode>RGB</xmpG:mode>
                           <xmpG:type>PROCESS</xmpG:type>
                           <xmpG:red>35</xmpG:red>
                           <xmpG:green>31</xmpG:green>
                           <xmpG:blue>32</xmpG:blue>
                        </rdf:li>
                        <rdf:li rdf:parseType="Resource">
                           <xmpG:swatchName>C=0 M=0 Y=0 K=90</xmpG:swatchName>
                           <xmpG:mode>RGB</xmpG:mode>
                           <xmpG:type>PROCESS</xmpG:type>
                           <xmpG:red>65</xmpG:red>
                           <xmpG:green>64</xmpG:green>
                           <xmpG:blue>66</xmpG:blue>
                        </rdf:li>
                        <rdf:li rdf:parseType="Resource">
                           <xmpG:swatchName>C=0 M=0 Y=0 K=80</xmpG:swatchName>
                           <xmpG:mode>RGB</xmpG:mode>
                           <xmpG:type>PROCESS</xmpG:type>
                           <xmpG:red>88</xmpG:red>
                           <xmpG:green>89</xmpG:green>
                           <xmpG:blue>91</xmpG:blue>
                        </rdf:li>
                        <rdf:li rdf:parseType="Resource">
                           <xmpG:swatchName>C=0 M=0 Y=0 K=70</xmpG:swatchName>
                           <xmpG:mode>RGB</xmpG:mode>
                           <xmpG:type>PROCESS</xmpG:type>
                           <xmpG:red>109</xmpG:red>
                           <xmpG:green>110</xmpG:green>
                           <xmpG:blue>113</xmpG:blue>
                        </rdf:li>
                        <rdf:li rdf:parseType="Resource">
                           <xmpG:swatchName>C=0 M=0 Y=0 K=60</xmpG:swatchName>
                           <xmpG:mode>RGB</xmpG:mode>
                           <xmpG:type>PROCESS</xmpG:type>
                           <xmpG:red>128</xmpG:red>
                           <xmpG:green>130</xmpG:green>
                           <xmpG:blue>133</xmpG:blue>
                        </rdf:li>
                        <rdf:li rdf:parseType="Resource">
                           <xmpG:swatchName>C=0 M=0 Y=0 K=50</xmpG:swatchName>
                           <xmpG:mode>RGB</xmpG:mode>
                           <xmpG:type>PROCESS</xmpG:type>
                           <xmpG:red>147</xmpG:red>
                           <xmpG:green>149</xmpG:green>
                           <xmpG:blue>152</xmpG:blue>
                        </rdf:li>
                        <rdf:li rdf:parseType="Resource">
                           <xmpG:swatchName>C=0 M=0 Y=0 K=40</xmpG:swatchName>
                           <xmpG:mode>RGB</xmpG:mode>
                           <xmpG:type>PROCESS</xmpG:type>
                           <xmpG:red>167</xmpG:red>
                           <xmpG:green>169</xmpG:green>
                           <xmpG:blue>172</xmpG:blue>
                        </rdf:li>
                        <rdf:li rdf:parseType="Resource">
                           <xmpG:swatchName>C=0 M=0 Y=0 K=30</xmpG:swatchName>
                           <xmpG:mode>RGB</xmpG:mode>
                           <xmpG:type>PROCESS</xmpG:type>
                           <xmpG:red>188</xmpG:red>
                           <xmpG:green>190</xmpG:green>
                           <xmpG:blue>192</xmpG:blue>
                        </rdf:li>
                        <rdf:li rdf:parseType="Resource">
                           <xmpG:swatchName>C=0 M=0 Y=0 K=20</xmpG:swatchName>
                           <xmpG:mode>RGB</xmpG:mode>
                           <xmpG:type>PROCESS</xmpG:type>
                           <xmpG:red>209</xmpG:red>
                           <xmpG:green>211</xmpG:green>
                           <xmpG:blue>212</xmpG:blue>
                        </rdf:li>
                        <rdf:li rdf:parseType="Resource">
                           <xmpG:swatchName>C=0 M=0 Y=0 K=10</xmpG:swatchName>
                           <xmpG:mode>RGB</xmpG:mode>
                           <xmpG:type>PROCESS</xmpG:type>
                           <xmpG:red>230</xmpG:red>
                           <xmpG:green>231</xmpG:green>
                           <xmpG:blue>232</xmpG:blue>
                        </rdf:li>
                        <rdf:li rdf:parseType="Resource">
                           <xmpG:swatchName>C=0 M=0 Y=0 K=5</xmpG:swatchName>
                           <xmpG:mode>RGB</xmpG:mode>
                           <xmpG:type>PROCESS</xmpG:type>
                           <xmpG:red>241</xmpG:red>
                           <xmpG:green>242</xmpG:green>
                           <xmpG:blue>242</xmpG:blue>
                        </rdf:li>
                     </rdf:Seq>
                  </xmpG:Colorants>
               </rdf:li>
               <rdf:li rdf:parseType="Resource">
                  <xmpG:groupName>Brights</xmpG:groupName>
                  <xmpG:groupType>1</xmpG:groupType>
                  <xmpG:Colorants>
                     <rdf:Seq>
                        <rdf:li rdf:parseType="Resource">
                           <xmpG:swatchName>C=0 M=100 Y=100 K=0</xmpG:swatchName>
                           <xmpG:mode>RGB</xmpG:mode>
                           <xmpG:type>PROCESS</xmpG:type>
                           <xmpG:red>237</xmpG:red>
                           <xmpG:green>28</xmpG:green>
                           <xmpG:blue>36</xmpG:blue>
                        </rdf:li>
                        <rdf:li rdf:parseType="Resource">
                           <xmpG:swatchName>C=0 M=75 Y=100 K=0</xmpG:swatchName>
                           <xmpG:mode>RGB</xmpG:mode>
                           <xmpG:type>PROCESS</xmpG:type>
                           <xmpG:red>242</xmpG:red>
                           <xmpG:green>101</xmpG:green>
                           <xmpG:blue>34</xmpG:blue>
                        </rdf:li>
                        <rdf:li rdf:parseType="Resource">
                           <xmpG:swatchName>C=0 M=10 Y=95 K=0</xmpG:swatchName>
                           <xmpG:mode>RGB</xmpG:mode>
                           <xmpG:type>PROCESS</xmpG:type>
                           <xmpG:red>255</xmpG:red>
                           <xmpG:green>222</xmpG:green>
                           <xmpG:blue>23</xmpG:blue>
                        </rdf:li>
                        <rdf:li rdf:parseType="Resource">
                           <xmpG:swatchName>C=85 M=10 Y=100 K=0</xmpG:swatchName>
                           <xmpG:mode>RGB</xmpG:mode>
                           <xmpG:type>PROCESS</xmpG:type>
                           <xmpG:red>0</xmpG:red>
                           <xmpG:green>161</xmpG:green>
                           <xmpG:blue>75</xmpG:blue>
                        </rdf:li>
                        <rdf:li rdf:parseType="Resource">
                           <xmpG:swatchName>C=100 M=90 Y=0 K=0</xmpG:swatchName>
                           <xmpG:mode>RGB</xmpG:mode>
                           <xmpG:type>PROCESS</xmpG:type>
                           <xmpG:red>33</xmpG:red>
                           <xmpG:green>64</xmpG:green>
                           <xmpG:blue>154</xmpG:blue>
                        </rdf:li>
                        <rdf:li rdf:parseType="Resource">
                           <xmpG:swatchName>C=60 M=90 Y=0 K=0</xmpG:swatchName>
                           <xmpG:mode>RGB</xmpG:mode>
                           <xmpG:type>PROCESS</xmpG:type>
                           <xmpG:red>127</xmpG:red>
                           <xmpG:green>63</xmpG:green>
                           <xmpG:blue>152</xmpG:blue>
                        </rdf:li>
                     </rdf:Seq>
                  </xmpG:Colorants>
               </rdf:li>
               <rdf:li rdf:parseType="Resource">
                  <xmpG:groupName>Color Group 1</xmpG:groupName>
                  <xmpG:groupType>1</xmpG:groupType>
                  <xmpG:Colorants>
                     <rdf:Seq>
                        <rdf:li rdf:parseType="Resource">
                           <xmpG:swatchName>R=29 G=33 B=41</xmpG:swatchName>
                           <xmpG:mode>RGB</xmpG:mode>
                           <xmpG:type>PROCESS</xmpG:type>
                           <xmpG:red>29</xmpG:red>
                           <xmpG:green>33</xmpG:green>
                           <xmpG:blue>41</xmpG:blue>
                        </rdf:li>
                        <rdf:li rdf:parseType="Resource">
                           <xmpG:swatchName>R=147 G=149 B=152</xmpG:swatchName>
                           <xmpG:mode>RGB</xmpG:mode>
                           <xmpG:type>PROCESS</xmpG:type>
                           <xmpG:red>147</xmpG:red>
                           <xmpG:green>149</xmpG:green>
                           <xmpG:blue>152</xmpG:blue>
                        </rdf:li>
                        <rdf:li rdf:parseType="Resource">
                           <xmpG:swatchName>R=230 G=231 B=232</xmpG:swatchName>
                           <xmpG:mode>RGB</xmpG:mode>
                           <xmpG:type>PROCESS</xmpG:type>
                           <xmpG:red>230</xmpG:red>
                           <xmpG:green>231</xmpG:green>
                           <xmpG:blue>232</xmpG:blue>
                        </rdf:li>
                        <rdf:li rdf:parseType="Resource">
                           <xmpG:swatchName>K=0</xmpG:swatchName>
                           <xmpG:mode>GRAY</xmpG:mode>
                           <xmpG:type>PROCESS</xmpG:type>
                           <xmpG:gray>0</xmpG:gray>
                        </rdf:li>
                     </rdf:Seq>
                  </xmpG:Colorants>
               </rdf:li>
            </rdf:Seq>
         </xmpTPg:SwatchGroups>
      </rdf:Description>
      <rdf:Description rdf:about=""
            xmlns:pdf="http://ns.adobe.com/pdf/1.3/">
         <pdf:Producer>Adobe PDF library 10.01</pdf:Producer>
      </rdf:Description>
   </rdf:RDF>
</x:xmpmeta>
                                                                                                    
                                                                                                    
                                                                                                    
                                                                                                    
                                                                                                    
                                                                                                    
                                                                                                    
                                                                                                    
                                                                                                    
                                                                                                    
                                                                                                    
                                                                                                    
                                                                                                    
                                                                                                    
                                                                                                    
                                                                                                    
                                                                                                    
                                                                                                    
                                                                                                    
                                                                                                    
                           
<?xpacket end="w"?>
	</metadata>
<g>
	<g>
		<path fill="#1D2129" d="M26.5,13.5c0,7.15-5.85,13-13,13s-13-5.85-13-13c0-7.15,5.85-13,13-13S26.5,6.35,26.5,13.5z"/>
		<path fill="none" stroke="#1D2129" stroke-miterlimit="10" d="M26.5,13.5c0,7.15-5.85,13-13,13s-13-5.85-13-13
			c0-7.15,5.85-13,13-13S26.5,6.35,26.5,13.5z"/>
	</g>
	<g>
		
			<line fill="none" stroke="#FFFFFF" stroke-width="1.4" stroke-linecap="round" stroke-linejoin="round" stroke-miterlimit="10" x1="13.5" y1="9.5" x2="13.5" y2="17.5"/>
		
			<line fill="none" stroke="#FFFFFF" stroke-width="1.4" stroke-linecap="round" stroke-linejoin="round" stroke-miterlimit="10" x1="9.5" y1="13.5" x2="17.5" y2="13.5"/>
	</g>
</g>
</svg>
