<?xml version="1.0" encoding="utf-8"?>
<!-- Generator: Adobe Illustrator 13.0.0, SVG Export Plug-In . SVG Version: 6.00 Build 14948)  -->
<svg version="1.2" baseProfile="tiny" id="Layer_1" xmlns="http://www.w3.org/2000/svg" xmlns:xlink="http://www.w3.org/1999/xlink"
	 x="0px" y="0px" width="18.5px" height="18.5px" viewBox="4.417 4.25 18.5 18.5" xml:space="preserve">
<g>
	<g>
		<g>
			<circle fill="none" cx="13.5" cy="13.5" r="13.5"/>
		</g>
		
			<path fill="none" stroke="#2BC400" stroke-width="1.4" stroke-linecap="round" stroke-linejoin="round" stroke-miterlimit="10" d="
			M15,16.5l-3-3l3-3"/>
	</g>
</g>
</svg>
