<?xml version="1.0" encoding="utf-8"?>
<!-- Generator: Adobe Illustrator 19.0.0, SVG Export Plug-In . SVG Version: 6.00 Build 0)  -->
<svg version="1.2" baseProfile="tiny" id="Layer_1" xmlns="http://www.w3.org/2000/svg" xmlns:xlink="http://www.w3.org/1999/xlink"
	 x="0px" y="0px" width="16px" height="16px" viewBox="0 0 16 16" xml:space="preserve">
<g id="XMLID_2255_">
	<path id="XMLID_2282_" fill="#231F20" d="M5.8,8.8c0-0.2-0.2-0.4-0.4-0.4H4.1c-0.2,0-0.4,0.2-0.4,0.4v1.3c0,0.2,0.2,0.4,0.4,0.4
		h1.3c0.2,0,0.4-0.2,0.4-0.4V8.8z M5.8,8.8"/>
	<path id="XMLID_2279_" fill="#231F20" d="M9,8.8c0-0.2-0.2-0.4-0.4-0.4H7.4C7.1,8.5,7,8.6,7,8.8v1.3c0,0.2,0.2,0.4,0.4,0.4h1.3
		c0.2,0,0.4-0.2,0.4-0.4V8.8z M9,8.8"/>
	<path id="XMLID_2276_" fill="#231F20" d="M12.3,8.8c0-0.2-0.2-0.4-0.4-0.4h-1.3c-0.2,0-0.4,0.2-0.4,0.4v1.3c0,0.2,0.2,0.4,0.4,0.4
		h1.3c0.2,0,0.4-0.2,0.4-0.4V8.8z M12.3,8.8"/>
	<path id="XMLID_2273_" fill="#231F20" d="M5.8,12c0-0.2-0.2-0.4-0.4-0.4H4.1c-0.2,0-0.4,0.2-0.4,0.4v1.3c0,0.2,0.2,0.4,0.4,0.4h1.3
		c0.2,0,0.4-0.2,0.4-0.4V12z M5.8,12"/>
	<path id="XMLID_2270_" fill="#231F20" d="M9,12c0-0.2-0.2-0.4-0.4-0.4H7.4C7.1,11.6,7,11.8,7,12v1.3c0,0.2,0.2,0.4,0.4,0.4h1.3
		c0.2,0,0.4-0.2,0.4-0.4V12z M9,12"/>
	<path id="XMLID_2266_" fill="#231F20" d="M12.3,12c0-0.2-0.2-0.4-0.4-0.4h-1.3c-0.2,0-0.4,0.2-0.4,0.4v1.3c0,0.2,0.2,0.4,0.4,0.4
		h1.3c0.2,0,0.4-0.2,0.4-0.4V12z M12.3,12"/>
	<path id="XMLID_2262_" fill="#231F20" d="M14.6,1.8v1.9c0,0.9-0.7,1.6-1.6,1.6h-1c-0.9,0-1.6-0.7-1.6-1.6V1.8H5.7v1.9
		c0,0.9-0.7,1.6-1.6,1.6H3c-0.9,0-1.6-0.7-1.6-1.6V1.8C0.6,1.8,0,2.4,0,3.2v11.3C0,15.3,0.7,16,1.5,16h13.1c0.8,0,1.5-0.7,1.5-1.4
		V3.2C16,2.4,15.4,1.8,14.6,1.8L14.6,1.8z M14.1,13.9c0,0.3-0.3,0.6-0.6,0.6h-11c-0.4,0-0.6-0.3-0.6-0.6V8c0-0.3,0.3-0.6,0.6-0.6h11
		c0.4,0,0.6,0.3,0.6,0.6V13.9z M14.1,13.9"/>
	<path id="XMLID_2259_" fill="#231F20" d="M3,4.3h1c0.3,0,0.6-0.2,0.6-0.5V0.5C4.6,0.2,4.4,0,4.1,0H3C2.7,0,2.5,0.2,2.5,0.5v3.2
		C2.5,4,2.7,4.3,3,4.3L3,4.3z M3,4.3"/>
	<path id="XMLID_2256_" fill="#231F20" d="M11.9,4.3h1c0.3,0,0.6-0.2,0.6-0.5V0.5c0-0.3-0.2-0.5-0.6-0.5h-1c-0.3,0-0.6,0.2-0.6,0.5
		v3.2C11.4,4,11.6,4.3,11.9,4.3L11.9,4.3z M11.9,4.3"/>
</g>
</svg>
