<?xml version="1.0" encoding="utf-8"?>
<!-- Generator: Adobe Illustrator 19.0.0, SVG Export Plug-In . SVG Version: 6.00 Build 0)  -->
<svg version="1.2" baseProfile="tiny" id="Layer_1" xmlns="http://www.w3.org/2000/svg" xmlns:xlink="http://www.w3.org/1999/xlink"
	 x="0px" y="0px" width="13.8px" height="15px" viewBox="0 0 13.8 15" xml:space="preserve">
<g id="XMLID_790_">
	<path id="XMLID_806_" fill="#231F20" d="M13.7,2.6c-0.1-0.1-0.1-0.1-0.2-0.1h-3L9.7,0.9C9.6,0.6,9.5,0.4,9.2,0.3C9,0.1,8.7,0,8.4,0
		H5.3C5.1,0,4.8,0.1,4.5,0.3C4.3,0.4,4.1,0.6,4,0.9L3.3,2.5h-3c-0.1,0-0.2,0-0.2,0.1C0,2.6,0,2.7,0,2.8v0.6c0,0.1,0,0.2,0.1,0.2
		c0.1,0.1,0.1,0.1,0.2,0.1h0.9V13c0,0.5,0.2,1,0.5,1.4C2,14.8,2.4,15,2.8,15h8.1c0.4,0,0.8-0.2,1.1-0.6c0.3-0.4,0.5-0.9,0.5-1.4V3.7
		h0.9c0.1,0,0.2,0,0.2-0.1c0.1-0.1,0.1-0.1,0.1-0.2V2.8C13.8,2.7,13.7,2.6,13.7,2.6L13.7,2.6z M5.2,1.4c0-0.1,0.1-0.1,0.2-0.1h3.1
		c0.1,0,0.1,0,0.2,0.1l0.5,1.1H4.7L5.2,1.4z M11.3,13c0,0.1,0,0.3-0.1,0.4c0,0.1-0.1,0.2-0.1,0.3c0,0.1-0.1,0.1-0.1,0.1H2.8
		c0,0-0.1,0-0.1-0.1c0-0.1-0.1-0.1-0.1-0.3c0-0.1-0.1-0.3-0.1-0.4V3.7h8.8V13z M11.3,13"/>
	<path id="XMLID_801_" fill="#231F20" d="M4.1,11.9h0.6c0.1,0,0.2,0,0.2-0.1C5,11.7,5,11.7,5,11.6V5.9c0-0.1,0-0.2-0.1-0.2
		C4.9,5.7,4.8,5.6,4.7,5.6H4.1c-0.1,0-0.2,0-0.2,0.1C3.8,5.8,3.8,5.8,3.8,5.9v5.6c0,0.1,0,0.2,0.1,0.2C3.9,11.8,4,11.9,4.1,11.9
		L4.1,11.9z M4.1,11.9"/>
	<path id="XMLID_796_" fill="#231F20" d="M6.6,11.9h0.6c0.1,0,0.2,0,0.2-0.1c0.1-0.1,0.1-0.1,0.1-0.2V5.9c0-0.1,0-0.2-0.1-0.2
		C7.4,5.7,7.3,5.6,7.2,5.6H6.6c-0.1,0-0.2,0-0.2,0.1C6.3,5.8,6.3,5.8,6.3,5.9v5.6c0,0.1,0,0.2,0.1,0.2C6.4,11.8,6.5,11.9,6.6,11.9
		L6.6,11.9z M6.6,11.9"/>
	<path id="XMLID_791_" fill="#231F20" d="M9.1,11.9h0.6c0.1,0,0.2,0,0.2-0.1c0.1-0.1,0.1-0.1,0.1-0.2V5.9c0-0.1,0-0.2-0.1-0.2
		C9.9,5.7,9.8,5.6,9.7,5.6H9.1c-0.1,0-0.2,0-0.2,0.1C8.8,5.8,8.8,5.8,8.8,5.9v5.6c0,0.1,0,0.2,0.1,0.2C8.9,11.8,9,11.9,9.1,11.9
		L9.1,11.9z M9.1,11.9"/>
</g>
</svg>
